<svg width="43" height="43" viewBox="0 0 43 43" fill="none" xmlns="http://www.w3.org/2000/svg">
<path d="M22.0368 9.27452C22.3536 9.27452 22.6574 9.40036 22.8814 9.62437C23.1054 9.84837 23.2313 10.1522 23.2313 10.469C23.2313 10.5406 23.2313 10.6063 23.2313 10.678L23.1297 11.6873L24.1092 11.9501C25.3821 12.2975 26.5416 12.9729 27.4716 13.909C28.1862 14.6205 28.7526 15.4666 29.138 16.3984C29.5235 17.3303 29.7203 18.3293 29.7171 19.3377V30.9417H14.3625V19.3377C14.3662 17.6623 14.9164 16.0338 15.9296 14.6995C16.9428 13.3651 18.3636 12.3977 19.9764 11.9441L20.9439 11.6754L20.8424 10.678C20.8424 10.6063 20.8424 10.5406 20.8424 10.469C20.8424 10.1522 20.9682 9.84837 21.1922 9.62437C21.4162 9.40036 21.72 9.27452 22.0368 9.27452ZM22.0368 8.08008C21.4033 8.08008 20.7956 8.33176 20.3476 8.77977C19.8996 9.22777 19.6479 9.83539 19.6479 10.469C19.6479 10.5765 19.6479 10.6899 19.6479 10.7974C17.7828 11.3177 16.1391 12.4341 14.968 13.9762C13.7969 15.5183 13.1626 17.4013 13.1621 19.3377V32.1362H30.8877V19.3377C30.8911 17.4003 30.2584 15.5154 29.0867 13.9725C27.9149 12.4296 26.269 11.3142 24.4018 10.7974C24.4078 10.688 24.4078 10.5784 24.4018 10.469C24.4018 9.83539 24.1501 9.22777 23.7021 8.77977C23.2541 8.33176 22.6465 8.08008 22.0129 8.08008H22.0368Z" fill="#041C2C"/>
<path d="M22.0323 31.5206C22.2497 31.5253 22.4609 31.5941 22.6395 31.7183C22.818 31.8426 22.9559 32.0167 23.0359 32.219C23.1158 32.4212 23.1343 32.6426 23.089 32.8553C23.0437 33.068 22.9367 33.2627 22.7813 33.4148C22.6258 33.5669 22.429 33.6698 22.2153 33.7105C22.0017 33.7513 21.7808 33.728 21.5803 33.6438C21.3798 33.5595 21.2086 33.4179 21.0882 33.2368C20.9678 33.0556 20.9036 32.843 20.9035 32.6255C20.9027 32.4802 20.9308 32.3361 20.986 32.2017C21.0413 32.0673 21.1226 31.9452 21.2254 31.8425C21.3281 31.7397 21.4502 31.6584 21.5847 31.6031C21.7191 31.5479 21.8631 31.5198 22.0084 31.5206H22.0323ZM22.0084 30.3262C21.5534 30.325 21.1083 30.4588 20.7294 30.7108C20.3504 30.9627 20.0548 31.3214 19.8799 31.7414C19.7049 32.1615 19.6585 32.624 19.7466 33.0704C19.8346 33.5168 20.0531 33.9271 20.3745 34.2492C20.6958 34.5714 21.1055 34.791 21.5517 34.8802C21.9978 34.9694 22.4605 34.9242 22.881 34.7503C23.3014 34.5765 23.6609 34.2818 23.9138 33.9035C24.1667 33.5253 24.3017 33.0805 24.3017 32.6255C24.3017 32.0167 24.0603 31.4328 23.6304 31.0017C23.2005 30.5707 22.6172 30.3278 22.0084 30.3262Z" fill="#041C2C"/>
<path d="M32.0772 27.6816H11.9866C11.6931 27.6816 11.4551 27.9196 11.4551 28.2132V31.3904C11.4551 31.6839 11.6931 31.9219 11.9866 31.9219H32.0772C32.3707 31.9219 32.6087 31.6839 32.6087 31.3904V28.2132C32.6087 27.9196 32.3707 27.6816 32.0772 27.6816Z" fill="#041C2C" stroke="#041C2C" stroke-miterlimit="10"/>
</svg>
