<svg width="28" height="23" viewBox="0 0 28 23" fill="none" xmlns="http://www.w3.org/2000/svg">
<path d="M7.01285 19.141V2.46452C7.00598 2.27886 7.0361 2.09367 7.10149 1.91956C7.16688 1.74544 7.26626 1.58581 7.39395 1.44979C7.52163 1.31377 7.67512 1.20403 7.84563 1.12686C8.01613 1.04968 8.20032 1.00657 8.38764 1H25.6304C25.8175 1.00656 26.0014 1.0497 26.1715 1.12696C26.3417 1.20422 26.4947 1.31406 26.6219 1.45017C26.7491 1.58628 26.8479 1.74597 26.9125 1.92005C26.9772 2.09413 27.0065 2.27917 26.9988 2.46452V20.5355C27.0127 20.9094 26.8765 21.2735 26.62 21.548C26.3635 21.8226 26.0076 21.9851 25.6304 22H7" stroke="#041C2C" stroke-width="1.5" stroke-miterlimit="10"/>
<path d="M1 5H7V20.4676C7 20.6689 6.95435 20.8681 6.86567 21.054C6.77698 21.24 6.647 21.4089 6.48313 21.5512C6.31926 21.6935 6.12472 21.8063 5.91062 21.8833C5.69651 21.9604 5.46704 22 5.23529 22H2.7575C2.29072 21.9983 1.84371 21.8362 1.51432 21.549C1.18493 21.2618 0.999996 20.8729 1 20.4676V5Z" stroke="#041C2C" stroke-width="1.5" stroke-miterlimit="10"/>
<path d="M4 22H7" stroke="#041C2C" stroke-width="1.5" stroke-miterlimit="10"/>
<path d="M14.7399 4.64453H9.67773V8.98351H14.7399V4.64453Z" fill="#041C2C"/>
<path d="M18 5H24" stroke="#041C2C" stroke-width="1.5" stroke-miterlimit="10" stroke-linecap="round"/>
<path d="M18 9H24" stroke="#041C2C" stroke-width="1.5" stroke-miterlimit="10" stroke-linecap="round"/>
<path d="M10 14H24" stroke="#041C2C" stroke-width="1.5" stroke-miterlimit="10" stroke-linecap="round"/>
<path d="M10 18H24" stroke="#041C2C" stroke-width="1.5" stroke-miterlimit="10" stroke-linecap="round"/>
</svg>
